{
    "Categories": "Qt;KDE;X-KDE-settings-looknfeel;",
    "KPlugin": {
        "BugReportUrl": "https://bugs.kde.org/enter_bug.cgi?product=systemsettings&component=kcm_kwinrules",
        "Description": "Individual Window Behavior",
        "Description[ar]": "سلوك النافذ المفردة",
        "Description[az]": "Fərdi pəncərə davranışı",
        "Description[be]": "Паводзіны асобных акон",
        "Description[bg]": "Индивидуално поведение на прозорците",
        "Description[ca@valencia]": "Comportament individual de les finestres",
        "Description[ca]": "Comportament individual de les finestres",
        "Description[cs]": "Chování individuálních oken",
        "Description[de]": "Individuelles Fensterverhalten",
        "Description[en_GB]": "Individual Window Behaviour",
        "Description[eo]": "Individua Fenestra Konduto",
        "Description[es]": "Comportamiento de ventanas individuales",
        "Description[et]": "Konkreetse akna käitumine",
        "Description[eu]": "Leihoen banakako portaera",
        "Description[fi]": "Yksittäisen ikkunan toiminta",
        "Description[fr]": "Comportement individuel des fenêtres",
        "Description[gl]": "Comportamento individual das xanelas.",
        "Description[he]": "התנהגות חלון יחיד",
        "Description[ia]": "Comportamento de fenestra individual",
        "Description[id]": "Perilaku Jendela Individu",
        "Description[it]": "Comportamento della singola finestra",
        "Description[ja]": "個別のウィンドウの挙動",
        "Description[ka]": "ინდივიდუალური ფანჯრების ქცევა",
        "Description[ko]": "개별 창 동작",
        "Description[nl]": "Individueel venstergedrag",
        "Description[nn]": "Åtferd for einskildvindauge",
        "Description[pl]": "Wyjątkowe okna",
        "Description[pt]": "Comportamento da Janela Individual",
        "Description[pt_BR]": "Comportamento das janelas individuais",
        "Description[ro]": "Comportament al ferestrelor individuale",
        "Description[ru]": "Особые параметры конкретных окон",
        "Description[sk]": "Individuálne správanie okien",
        "Description[sl]": "Individualno vedenje oken",
        "Description[sv]": "Individuellt fönsterbeteende",
        "Description[ta]": "தனிப்பட்ட சாளரங்களின் நடத்தை",
        "Description[tr]": "Bireysel Pencere Davranışı",
        "Description[uk]": "Поведінка окремих вікон",
        "Description[vi]": "Ứng xử của riêng từng cửa sổ",
        "Description[x-test]": "xxIndividual Window Behaviorxx",
        "Description[zh_CN]": "个别窗口行为",
        "Description[zh_TW]": "個別視窗行為",
        "FormFactors": [
            "desktop",
            "tablet"
        ],
        "Icon": "preferences-system-windows-actions",
        "Name": "Window Rules",
        "Name[ar]": "قواعد النوافذ",
        "Name[az]": "Pəncərə qaydası",
        "Name[be]": "Правілы для акон",
        "Name[bg]": "Правила за прозорци",
        "Name[ca@valencia]": "Regles de les finestres",
        "Name[ca]": "Regles de les finestres",
        "Name[cs]": "Pravidla oken",
        "Name[de]": "Fensterregeln",
        "Name[en_GB]": "Window Rules",
        "Name[eo]": "Fenestraj Reguloj",
        "Name[es]": "Reglas de las ventanas",
        "Name[et]": "Aknareeglid",
        "Name[eu]": "Leihoaren arauak",
        "Name[fi]": "Ikkunasäännöt",
        "Name[fr]": "Règles de fenêtres",
        "Name[gl]": "Regras de xanelas",
        "Name[he]": "כללי חלון",
        "Name[ia]": "Regulas de fenestra",
        "Name[id]": "Peraturan Jendela",
        "Name[it]": "Regole delle finestre",
        "Name[ja]": "ウィンドウのルール",
        "Name[ka]": "ფანჯრების წესები",
        "Name[ko]": "창 규칙",
        "Name[nl]": "Vensterregels",
        "Name[nn]": "Vindaugsreglar",
        "Name[pl]": "Zasady okien",
        "Name[pt]": "Regras das Janelas",
        "Name[pt_BR]": "Regras das janelas",
        "Name[ro]": "Reguli ferestre",
        "Name[ru]": "Особые параметры окон",
        "Name[sk]": "Pravidlá okien",
        "Name[sl]": "Pravila oken",
        "Name[sv]": "Fönsterregler",
        "Name[ta]": "சாளர விதிமுறைகள்",
        "Name[tr]": "Pencere Kuralları",
        "Name[uk]": "Правила вікон",
        "Name[vi]": "Luật cửa sổ",
        "Name[x-test]": "xxWindow Rulesxx",
        "Name[zh_CN]": "窗口规则",
        "Name[zh_TW]": "視窗規則"
    },
    "X-DocPath": "kcontrol/windowspecific/index.html",
    "X-KDE-Keywords": "size,position,state,window behavior,windows,specific,workarounds,remember,rules,window rules,apps,applications",
    "X-KDE-Keywords[ar]": "حجم,حالة,سلوك النافذة,تذكر,قواعد,قاعدة,تطبيق,تطبيقات",
    "X-KDE-Keywords[az]": "size,position,state,window behavior,windows,specific,workarounds,remember,rules,window rules,apps,applications,olçü,mövqe,pəncərə davranışı,pəncərə,iş əhatəsi,yadda saxlamaq,qaydalar,pəncərə qaydaları,tətbiqlər,tətbiqetmələr",
    "X-KDE-Keywords[ca@valencia]": "mida,posició,estat,comportament de la finestra,finestres,específic,solucions alternatives,recorda,regles,regles de finestres,apps,aplicacions",
    "X-KDE-Keywords[ca]": "mida,posició,estat,comportament de la finestra,finestres,específic,solucions alternatives,recorda,regles,regles de finestres,apps,aplicacions",
    "X-KDE-Keywords[en_GB]": "size,position,state,window behaviour,windows,specific,workarounds,remember,rules,window rules,apps,applications",
    "X-KDE-Keywords[es]": "tamaño,posición,estado,comportamiento de las ventanas,ventanas,específicos,soluciones,recordatorio,reglas,reglas de la ventana,aplicaciones,apps",
    "X-KDE-Keywords[fi]": "koko,sijainti,tila,ikkunoiden toiminta,ikkunat,erikoisasetukset,ikkunakohtaiset,korjaukset,muista,muistaminen,ikkunasäännöt,sovellukset",
    "X-KDE-Keywords[fr]": "taille, position, état, comportement de la fenêtre, fenêtres, spécifique, contournements, rappel, règles, règles de fenêtre, applications, apps",
    "X-KDE-Keywords[hu]": "méret,elhelyezkedés,állapot,ablakműködés,ablakok,specifikus,kerülő megoldások,megjegyzés,szabályok,ablakszabályok,alkalmazások,alkalmazások",
    "X-KDE-Keywords[ia]": "grandor,position,stato,comportamento de fenestra,fenestras,specific,workarounds,memora,regulas, regulas de fenestra,apps,applicationes",
    "X-KDE-Keywords[id]": "ukuran,posisi,kondisi,perilaku window,window,spesifik,sekeliling,ingat,aturan,aturan window,apl,aplikasi",
    "X-KDE-Keywords[it]": "dimensione,posizione,stato,comportamento della finestra,finestre,specifico,espedienti,ricorda,regole,regole delle finestre,applicazioni",
    "X-KDE-Keywords[ko]": "size,position,state,window behavior,windows,specific,workarounds,remember,rules,window rules,apps,applications,크기,위치,창 행동,창,창 지정,규칙,프로그램,앱",
    "X-KDE-Keywords[nl]": "grootte,positie,status,venstergedrag,vensters,specifiek,er omheen gewerkt,herinneren,regels,vensterregels,toepassingen",
    "X-KDE-Keywords[nn]": "storleik,plassering,tilstand,vindaugsåtferd,vindauge,einskild,løysingar,unntak,hugs,reglar,vindaugsreglar,appar,applikasjonar,program,brukarprogram",
    "X-KDE-Keywords[pl]": "rozmiar,pozycja,stan,zachowanie okna,okna,specyficzne,obejścia,zapamiętaj,zasady,zasady okien,apki,aplikacje",
    "X-KDE-Keywords[pt]": "tamanho,posição,estado,comportamento da janela,janelas,específico,alternativas,recordar,regras,regras das janelas,aplicações",
    "X-KDE-Keywords[pt_BR]": "tamanho,posição,estado,comportamento da janela,janelas,específico,alternativas,lembrar,regras,regras de janelas,apps,aplicativos,aplicações",
    "X-KDE-Keywords[ro]": "dimensiune,poziție,stare,comportament ferestre,ferestre,specific,ține minte,reguli,reguli fereastră,aplicații",
    "X-KDE-Keywords[ru]": "size,position,state,window behavior,windows,specific,workarounds,remember,rules,window rules,apps,applications,размер,позиция,состояние,поведение окон,окна,специальный,специальные возможности,запомнить,правила,правила окон,приложение,приложения",
    "X-KDE-Keywords[sk]": "veľkosť,pozícia,stav,správanie okna,okná,špecifické,náhradné riešenia,zapamätať si, pravidlá,pravidlá okien,appky,aplikácie",
    "X-KDE-Keywords[sl]": "velikost,položaj,stanje,obnašanje oken,okna,določeno,popravki,pomnjenje,pravila,pravila oken,aplikacije",
    "X-KDE-Keywords[sv]": "storlek,position,tillstånd,fönsterbeteende,fönster,specifik,kom ihåg,regler,fönsterregler,program",
    "X-KDE-Keywords[ta]": "size,position,state,window behavior,windows,specific,workarounds,remember,rules,window rules,apps,applications, அளவு, இருப்பிடம், நிலை, சாளர நடத்தை, சாளரங்கள், தனிப்பட்ட, விதிமுறை, செயலிகள், நிரல்கள்",
    "X-KDE-Keywords[tr]": "boyut,konum,durum,pencere davranışı,pencere,özel,etrafından dolanmalar,anımsa,kurallar,uygulama,uygulamalar",
    "X-KDE-Keywords[uk]": "size,position,state,window behavior,windows,specific,workarounds,remember,rules,window rules,apps,applications,розмір,розташування,місце,стан,поведінка,вікно,вікна,поведінка вікон,окрема,специфічна,окремо,запам’ятати,пам’ять,правило,правила,правила вікон,програми,застосунки",
    "X-KDE-Keywords[vi]": "size,position,state,window behavior,windows,specific,workarounds,remember,rules,window rules,apps,applications,kích thước,vị trí,trạng thái,ứng xử của cửa sổ,theo cửa sổ,cách khắc phục,nhớ,luật,luật cửa sổ,ứng dụng",
    "X-KDE-Keywords[x-test]": "xxsizexx,xxpositionxx,xxstatexx,xxwindow behaviorxx,xxwindowsxx,xxspecificxx,xxworkaroundsxx,xxrememberxx,xxrulesxx,xxwindow rulesxx,xxappsxx,xxapplicationsxx",
    "X-KDE-Keywords[zh_CN]": "size,position,state,window behavior,windows,specific,workarounds,remember,rules,大小,位置,窗口行为,特定,个别,指定,记住,记忆,记录,规则,窗口规则,应用,应用程序",
    "X-KDE-System-Settings-Parent-Category": "windowmanagement",
    "X-KDE-Weight": 40
}
