{
    "KPlugin": {
        "Description": "Window Decoration Theme Engine",
        "Description[ar]": "محرك سمات زخارف النوافذ",
        "Description[bg]": "Основна програма (енджин) на темата за декорации на прозорци",
        "Description[ca@valencia]": "Motor del tema de decoració de les finestres",
        "Description[ca]": "Motor de tema de decoració de les finestres",
        "Description[cs]": "Stroj motivů dekorace oken",
        "Description[en_GB]": "Window Decoration Theme Engine",
        "Description[eo]": "Fenestrodekora Etosmotoro",
        "Description[es]": "Motor de temas de decoraciones de las ventanas",
        "Description[eu]": "Leiho-apaindura gaien motorra",
        "Description[fi]": "Ikkunakoristeluteemamoottori",
        "Description[fr]": "Moteur pour les thèmes de décorations de fenêtres",
        "Description[gl]": "Motor de temas de decoración de xanelas.",
        "Description[he]": "מנוע ערכות עיצוב לחלונות",
        "Description[ia]": "Motor de Thema de Decoratione de fenestra",
        "Description[it]": "Motore dei temi delle decorazioni delle finestre",
        "Description[ja]": "ウィンドウ装飾テーマエンジン",
        "Description[ka]": "ფანჯრის დეკორაციის თემის ძრავა",
        "Description[ko]": "창 장식 테마 엔진",
        "Description[nl]": "Engine voor thema van vensterdecoraties",
        "Description[nn]": "Vindaugsdekorasjon-temamotor",
        "Description[pl]": "Silnik wyglądu okien",
        "Description[sl]": "Stroj za teme okrasitev oken",
        "Description[tr]": "Pencere Dekorasyon Teması İşletkesi",
        "Description[uk]": "Рушій тем обрамлення вікон",
        "Description[x-test]": "xxWindow Decoration Theme Enginexx",
        "Description[zh_CN]": "窗口装饰主题引擎",
        "Description[zh_TW]": "視窗裝飾主題引擎",
        "Name": "Aurorae",
        "Name[ar]": "أورورا",
        "Name[bg]": "Aurorae",
        "Name[ca@valencia]": "Aurorae",
        "Name[ca]": "Aurorae",
        "Name[cs]": "Aurorae",
        "Name[de]": "Aurorae",
        "Name[en_GB]": "Aurorae",
        "Name[eo]": "Aurorae",
        "Name[es]": "Aurorae",
        "Name[eu]": "Aurorae",
        "Name[fi]": "Aurorae",
        "Name[fr]": "Aurorae",
        "Name[gl]": "Aurorae",
        "Name[he]": "זוהר צפוני",
        "Name[ia]": "Aurorae",
        "Name[it]": "Aurorae",
        "Name[ja]": "Aurorae",
        "Name[ka]": "ავრორა",
        "Name[ko]": "Aurorae",
        "Name[nl]": "Aurorae",
        "Name[nn]": "Aurorae",
        "Name[pl]": "Aurorae",
        "Name[sk]": "Aurorae",
        "Name[sl]": "Aurorae",
        "Name[tr]": "Aurorae",
        "Name[uk]": "Aurorae",
        "Name[x-test]": "xxAuroraexx",
        "Name[zh_CN]": "Aurorae 极光",
        "Name[zh_TW]": "Aurorae"
    }
}
